%YAML 1.1
%TAG !u! tag:unity3d.com,2011:
--- !u!1045 &1
EditorBuildSettings:
  m_ObjectHideFlags: 0
  serializedVersion: 2
  m_Scenes:
  - enabled: 1
    path: Assets/ListView/Examples/9. Dictionary/Dictionary.unity
    guid: 16b5a3f89dac64848bbb67693a231251
  - enabled: 1
    path: Assets/ListView/Examples/0. Simple/Simple.unity
    guid: 6c3928560d8b0324e9542f18ba9a3145
  - enabled: 1
    path: Assets/ListView/Examples/1. Basic/Basic.unity
    guid: 7130a0e6a4674134c896223a76fabb4b
  - enabled: 1
    path: Assets/ListView/Examples/2. Custom Scrolling/Custom Scrolling.unity
    guid: b0c1c60b188c0e44cbf52ca3412fa4d6
  - enabled: 1
    path: Assets/ListView/Examples/3. Custom Item/Custom Item.unity
    guid: 58c74c5d2fce43d45a03b6fb7f370084
  - enabled: 1
    path: Assets/ListView/Examples/4. Wrapping/Wrapping.unity
    guid: 3eb7460f72e934bd3b75a2d73c5f9572
  - enabled: 1
    path: Assets/ListView/Examples/5. JSON Data/Custom Data.unity
    guid: 00243d3a235b1bf40ba032959b0c82e7
  - enabled: 1
    path: Assets/ListView/Examples/6. Nested Data/Nested Data.unity
    guid: 7b1f6985698434248b8986d2b4c08b82
  - enabled: 1
    path: Assets/ListView/Examples/7. Web Data/Web Data.unity
    guid: 5005c1761ecc893498247e313b02b754
  - enabled: 1
    path: Assets/ListView/Examples/8. Advanced List/Advanced List.unity
    guid: d2caa4e1e6e474f4aba0298b4329c19f
  - enabled: 1
    path: Assets/ListView/Examples/10. Cards/Cards.unity
    guid: 7aacbda7fc55b4244a4379df5ffc75ef
  - enabled: 1
    path: Assets/ListView/Examples/11. Card Game/Card Game.unity
    guid: e7471a07cf76240409b9794fe8729d0a
